solid OpenSCAD_Model
  facet normal 0 0 -1
    outer loop
      vertex 4.62857 -14.0643 4
      vertex 3.70941 -12.4553 4
      vertex 4.70991 -13.9985 4
    endloop
  endfacet
  facet normal 0 0 -1
    outer loop
      vertex 4.54078 -14.1213 4
      vertex 3.70941 -12.4553 4
      vertex 4.62857 -14.0643 4
    endloop
  endfacet
  facet normal 0 0 -1
    outer loop
      vertex 3.70941 -12.4553 4
      vertex 4.74788 -13.9624 4
      vertex 4.70991 -13.9985 4
    endloop
  endfacet
  facet normal 0 0 -1
    outer loop
      vertex 8.95533 -7.20942 4
      vertex 10.7539 -7.59311 4
      vertex 10.743 -7.69722 4
    endloop
  endfacet
  facet normal 0 0 -1
    outer loop
      vertex 8.95533 -7.20942 4
      vertex 10.594 -8.08542 4
      vertex 10.5325 -8.1701 4
    endloop
  endfacet
  facet normal -0 0 -1
    outer loop
      vertex 10.6889 -7.89914 4
      vertex 10.6463 -7.99476 4
      vertex 8.95533 -7.20942 4
    endloop
  endfacet
  facet normal 0 0 -1
    outer loop
      vertex 10.7212 -7.7996 4
      vertex 8.95533 -7.20942 4
      vertex 10.743 -7.69722 4
    endloop
  endfacet
  facet normal 0 0 -1
    outer loop
      vertex 10.6889 -7.89914 4
      vertex 8.95533 -7.20942 4
      vertex 10.7212 -7.7996 4
    endloop
  endfacet
  facet normal -0 0 -1
    outer loop
      vertex 10.6463 -7.99476 4
      vertex 10.594 -8.08542 4
      vertex 8.95533 -7.20942 4
    endloop
  endfacet
  facet normal -0 0 -1
    outer loop
      vertex 10.7553 -7.54078 4
      vertex 10.7539 -7.59311 4
      vertex 8.95533 -7.20942 4
    endloop
  endfacet
  facet normal 0 0 -1
    outer loop
      vertex 8.95531 0.209412 4
      vertex 4.74789 6.96242 4
      vertex 10.4624 1.24788 4
    endloop
  endfacet
  facet normal 0 -0 -1
    outer loop
      vertex 10.4624 1.24788 4
      vertex 10.4985 1.20991 4
      vertex 8.95531 0.209412 4
    endloop
  endfacet
  facet normal 0 0 -1
    outer loop
      vertex 8.95531 0.209412 4
      vertex 10.7335 0.748708 4
      vertex 10.7498 0.645316 4
    endloop
  endfacet
  facet normal 0 -0 -1
    outer loop
      vertex 10.6689 0.947512 4
      vertex 10.7064 0.849816 4
      vertex 8.95531 0.209412 4
    endloop
  endfacet
  facet normal 0 0 -1
    outer loop
      vertex 8.95531 0.209412 4
      vertex 10.4985 1.20991 4
      vertex 10.5643 1.12857 4
    endloop
  endfacet
  facet normal 0 0 -1
    outer loop
      vertex 8.95531 0.209412 4
      vertex 10.5643 1.12857 4
      vertex 10.6213 1.04078 4
    endloop
  endfacet
  facet normal -0 0 -1
    outer loop
      vertex 10.6689 0.947512 4
      vertex 8.95531 0.209412 4
      vertex 10.6213 1.04078 4
    endloop
  endfacet
  facet normal 0 -0 -1
    outer loop
      vertex 10.7064 0.849816 4
      vertex 10.7335 0.748708 4
      vertex 8.95531 0.209412 4
    endloop
  endfacet
  facet normal -0 0 -1
    outer loop
      vertex 3.70942 5.45533 4
      vertex -3.70941 5.45531 4
      vertex 4.04078 7.25531 4
    endloop
  endfacet
  facet normal 0 -0 -1
    outer loop
      vertex 10.7553 0.540791 4
      vertex 10.7553 -7.54078 4
      vertex 8.95531 0.209412 4
    endloop
  endfacet
  facet normal 0 0 -1
    outer loop
      vertex 3.70942 5.45533 4
      vertex 4.09311 7.25393 4
      vertex 4.19722 7.243 4
    endloop
  endfacet
  facet normal 0 0 -1
    outer loop
      vertex 3.70942 5.45533 4
      vertex 4.58542 7.09397 4
      vertex 4.67011 7.03247 4
    endloop
  endfacet
  facet normal 0 -0 -1
    outer loop
      vertex 4.39914 7.18889 4
      vertex 4.49476 7.14632 4
      vertex 3.70942 5.45533 4
    endloop
  endfacet
  facet normal -0 0 -1
    outer loop
      vertex 4.2996 7.22124 4
      vertex 3.70942 5.45533 4
      vertex 4.19722 7.243 4
    endloop
  endfacet
  facet normal -0 0 -1
    outer loop
      vertex 4.39914 7.18889 4
      vertex 3.70942 5.45533 4
      vertex 4.2996 7.22124 4
    endloop
  endfacet
  facet normal 0 -0 -1
    outer loop
      vertex 4.49476 7.14632 4
      vertex 4.58542 7.09397 4
      vertex 3.70942 5.45533 4
    endloop
  endfacet
  facet normal 0 -0 -1
    outer loop
      vertex 4.04078 7.25531 4
      vertex 4.09311 7.25393 4
      vertex 3.70942 5.45533 4
    endloop
  endfacet
  facet normal 0 0 -1
    outer loop
      vertex -10.5325 1.17011 4
      vertex -10.4624 1.24789 4
      vertex -8.95533 0.209418 4
    endloop
  endfacet
  facet normal -0 0 -1
    outer loop
      vertex -3.70941 5.45531 4
      vertex -10.4624 1.24789 4
      vertex -4.74788 6.96242 4
    endloop
  endfacet
  facet normal 0 0 -1
    outer loop
      vertex -4.74788 6.96242 4
      vertex -4.70991 6.99847 4
      vertex -3.70941 5.45531 4
    endloop
  endfacet
  facet normal 0 0 -1
    outer loop
      vertex -3.70941 5.45531 4
      vertex -4.24871 7.23345 4
      vertex -4.14532 7.24984 4
    endloop
  endfacet
  facet normal 0 0 -1
    outer loop
      vertex -4.44751 7.16886 4
      vertex -4.34982 7.20637 4
      vertex -3.70941 5.45531 4
    endloop
  endfacet
  facet normal 0 0 -1
    outer loop
      vertex -3.70941 5.45531 4
      vertex -4.70991 6.99847 4
      vertex -4.62857 7.06433 4
    endloop
  endfacet
  facet normal 0 0 -1
    outer loop
      vertex -3.70941 5.45531 4
      vertex -4.62857 7.06433 4
      vertex -4.54078 7.12134 4
    endloop
  endfacet
  facet normal 0 -0 -1
    outer loop
      vertex -4.44751 7.16886 4
      vertex -3.70941 5.45531 4
      vertex -4.54078 7.12134 4
    endloop
  endfacet
  facet normal 0 0 -1
    outer loop
      vertex -4.34982 7.20637 4
      vertex -4.24871 7.23345 4
      vertex -3.70941 5.45531 4
    endloop
  endfacet
  facet normal 0 0 -1
    outer loop
      vertex -4.04079 7.25531 4
      vertex 4.04078 7.25531 4
      vertex -3.70941 5.45531 4
    endloop
  endfacet
  facet normal -0 0 -1
    outer loop
      vertex 3.70941 -12.4553 4
      vertex -4.04078 -14.2553 4
      vertex -3.70942 -12.4553 4
    endloop
  endfacet
  facet normal 0 0 -1
    outer loop
      vertex -8.95533 0.209418 4
      vertex -10.7539 0.593114 4
      vertex -10.743 0.697218 4
    endloop
  endfacet
  facet normal 0 0 -1
    outer loop
      vertex -8.95533 0.209418 4
      vertex -10.594 1.08542 4
      vertex -10.5325 1.17011 4
    endloop
  endfacet
  facet normal 0 0 -1
    outer loop
      vertex -10.6889 0.899141 4
      vertex -10.6463 0.994765 4
      vertex -8.95533 0.209418 4
    endloop
  endfacet
  facet normal 0 -0 -1
    outer loop
      vertex -10.7212 0.799596 4
      vertex -8.95533 0.209418 4
      vertex -10.743 0.697218 4
    endloop
  endfacet
  facet normal 0 -0 -1
    outer loop
      vertex -10.6889 0.899141 4
      vertex -8.95533 0.209418 4
      vertex -10.7212 0.799596 4
    endloop
  endfacet
  facet normal 0 0 -1
    outer loop
      vertex -10.6463 0.994765 4
      vertex -10.594 1.08542 4
      vertex -8.95533 0.209418 4
    endloop
  endfacet
  facet normal 0 0 -1
    outer loop
      vertex -10.7553 0.540781 4
      vertex -10.7539 0.593114 4
      vertex -8.95533 0.209418 4
    endloop
  endfacet
  facet normal 0 -0 -1
    outer loop
      vertex -8.95531 -7.20941 4
      vertex -4.74789 -13.9624 4
      vertex -10.4624 -8.24788 4
    endloop
  endfacet
  facet normal -0 0 -1
    outer loop
      vertex 10.4624 -8.24789 4
      vertex 3.70941 -12.4553 4
      vertex 8.95533 -7.20942 4
    endloop
  endfacet
  facet normal 0 0 -1
    outer loop
      vertex -10.4624 -8.24788 4
      vertex -10.4985 -8.20991 4
      vertex -8.95531 -7.20941 4
    endloop
  endfacet
  facet normal 0 0 -1
    outer loop
      vertex -8.95531 -7.20941 4
      vertex -10.7335 -7.74871 4
      vertex -10.7498 -7.64532 4
    endloop
  endfacet
  facet normal 0 0 -1
    outer loop
      vertex -10.6689 -7.94751 4
      vertex -10.7064 -7.84982 4
      vertex -8.95531 -7.20941 4
    endloop
  endfacet
  facet normal 0 0 -1
    outer loop
      vertex -8.95531 -7.20941 4
      vertex -10.4985 -8.20991 4
      vertex -10.5643 -8.12857 4
    endloop
  endfacet
  facet normal 0 0 -1
    outer loop
      vertex -8.95531 -7.20941 4
      vertex -10.5643 -8.12857 4
      vertex -10.6213 -8.04078 4
    endloop
  endfacet
  facet normal 0 0 -1
    outer loop
      vertex -10.6689 -7.94751 4
      vertex -8.95531 -7.20941 4
      vertex -10.6213 -8.04078 4
    endloop
  endfacet
  facet normal 0 0 -1
    outer loop
      vertex -10.7064 -7.84982 4
      vertex -10.7335 -7.74871 4
      vertex -8.95531 -7.20941 4
    endloop
  endfacet
  facet normal 0 0 -1
    outer loop
      vertex -10.7553 0.540781 4
      vertex -8.95533 0.209418 4
      vertex -8.95531 -7.20941 4
    endloop
  endfacet
  facet normal 0 0 -1
    outer loop
      vertex -3.70942 -12.4553 4
      vertex -4.09311 -14.2539 4
      vertex -4.19722 -14.243 4
    endloop
  endfacet
  facet normal 0 0 -1
    outer loop
      vertex -3.70942 -12.4553 4
      vertex -4.58542 -14.094 4
      vertex -4.67011 -14.0325 4
    endloop
  endfacet
  facet normal 0 0 -1
    outer loop
      vertex -4.39914 -14.1889 4
      vertex -4.49476 -14.1463 4
      vertex -3.70942 -12.4553 4
    endloop
  endfacet
  facet normal 0 0 -1
    outer loop
      vertex -4.2996 -14.2212 4
      vertex -3.70942 -12.4553 4
      vertex -4.19722 -14.243 4
    endloop
  endfacet
  facet normal 0 0 -1
    outer loop
      vertex -4.39914 -14.1889 4
      vertex -3.70942 -12.4553 4
      vertex -4.2996 -14.2212 4
    endloop
  endfacet
  facet normal 0 0 -1
    outer loop
      vertex -4.49476 -14.1463 4
      vertex -4.58542 -14.094 4
      vertex -3.70942 -12.4553 4
    endloop
  endfacet
  facet normal 0 0 -1
    outer loop
      vertex -4.04078 -14.2553 4
      vertex -4.09311 -14.2539 4
      vertex -3.70942 -12.4553 4
    endloop
  endfacet
  facet normal 0 0 -1
    outer loop
      vertex 4.04079 -14.2553 4
      vertex -4.04078 -14.2553 4
      vertex 3.70941 -12.4553 4
    endloop
  endfacet
  facet normal -0 0 -1
    outer loop
      vertex 4.14532 -14.2498 4
      vertex 4.04079 -14.2553 4
      vertex 3.70941 -12.4553 4
    endloop
  endfacet
  facet normal -0 0 -1
    outer loop
      vertex 4.34982 -14.2064 4
      vertex 4.24871 -14.2335 4
      vertex 3.70941 -12.4553 4
    endloop
  endfacet
  facet normal 0 0 -1
    outer loop
      vertex 3.70941 -12.4553 4
      vertex 4.24871 -14.2335 4
      vertex 4.14532 -14.2498 4
    endloop
  endfacet
  facet normal -0 0 -1
    outer loop
      vertex 4.54078 -14.1213 4
      vertex 4.44751 -14.1689 4
      vertex 3.70941 -12.4553 4
    endloop
  endfacet
  facet normal 0 0 -1
    outer loop
      vertex 3.70941 -12.4553 4
      vertex 4.44751 -14.1689 4
      vertex 4.34982 -14.2064 4
    endloop
  endfacet
  facet normal 0 0 -1
    outer loop
      vertex 4.74788 -13.9624 4
      vertex 3.70941 -12.4553 4
      vertex 10.4624 -8.24789 4
    endloop
  endfacet
  facet normal 0 0 -1
    outer loop
      vertex 8.95533 -7.20942 4
      vertex 10.5325 -8.1701 4
      vertex 10.4624 -8.24789 4
    endloop
  endfacet
  facet normal 0 0 -1
    outer loop
      vertex -8.95531 -7.20941 4
      vertex -3.70942 -12.4553 4
      vertex -4.74789 -13.9624 4
    endloop
  endfacet
  facet normal 0 0 -1
    outer loop
      vertex -3.70942 -12.4553 4
      vertex -4.67011 -14.0325 4
      vertex -4.74789 -13.9624 4
    endloop
  endfacet
  facet normal 0 0 -1
    outer loop
      vertex -10.7553 0.540781 4
      vertex -8.95531 -7.20941 4
      vertex -10.7553 -7.54079 4
    endloop
  endfacet
  facet normal 0 0 -1
    outer loop
      vertex -8.95531 -7.20941 4
      vertex -10.7498 -7.64532 4
      vertex -10.7553 -7.54079 4
    endloop
  endfacet
  facet normal 0 0 -1
    outer loop
      vertex -8.95533 0.209418 4
      vertex -10.4624 1.24789 4
      vertex -3.70941 5.45531 4
    endloop
  endfacet
  facet normal 0 -0 -1
    outer loop
      vertex -4.04079 7.25531 4
      vertex -3.70941 5.45531 4
      vertex -4.14532 7.24984 4
    endloop
  endfacet
  facet normal 0 0 -1
    outer loop
      vertex 8.95531 0.209412 4
      vertex 3.70942 5.45533 4
      vertex 4.74789 6.96242 4
    endloop
  endfacet
  facet normal 0 0 -1
    outer loop
      vertex 3.70942 5.45533 4
      vertex 4.67011 7.03247 4
      vertex 4.74789 6.96242 4
    endloop
  endfacet
  facet normal -0 0 -1
    outer loop
      vertex 10.7553 0.540791 4
      vertex 8.95531 0.209412 4
      vertex 10.7498 0.645316 4
    endloop
  endfacet
  facet normal 0 0 -1
    outer loop
      vertex 10.7553 -7.54078 4
      vertex 8.95533 -7.20942 4
      vertex 8.95531 0.209412 4
    endloop
  endfacet
  facet normal 0 0 1
    outer loop
      vertex 4.70991 -13.9985 5.5
      vertex 3.70941 -12.4553 5.5
      vertex 4.62857 -14.0643 5.5
    endloop
  endfacet
  facet normal 0 0 1
    outer loop
      vertex 4.62857 -14.0643 5.5
      vertex 3.70941 -12.4553 5.5
      vertex 4.54078 -14.1213 5.5
    endloop
  endfacet
  facet normal 0 -0 1
    outer loop
      vertex 4.70991 -13.9985 5.5
      vertex 4.74788 -13.9624 5.5
      vertex 3.70941 -12.4553 5.5
    endloop
  endfacet
  facet normal 0 -0 1
    outer loop
      vertex 10.743 -7.69722 5.5
      vertex 10.7539 -7.59311 5.5
      vertex 8.95533 -7.20942 5.5
    endloop
  endfacet
  facet normal 0 -0 1
    outer loop
      vertex 10.5325 -8.1701 5.5
      vertex 10.594 -8.08542 5.5
      vertex 8.95533 -7.20942 5.5
    endloop
  endfacet
  facet normal 0 0 1
    outer loop
      vertex 8.95533 -7.20942 5.5
      vertex 10.6463 -7.99476 5.5
      vertex 10.6889 -7.89914 5.5
    endloop
  endfacet
  facet normal 0 0 1
    outer loop
      vertex 10.743 -7.69722 5.5
      vertex 8.95533 -7.20942 5.5
      vertex 10.7212 -7.7996 5.5
    endloop
  endfacet
  facet normal 0 0 1
    outer loop
      vertex 10.7212 -7.7996 5.5
      vertex 8.95533 -7.20942 5.5
      vertex 10.6889 -7.89914 5.5
    endloop
  endfacet
  facet normal 0 0 1
    outer loop
      vertex 8.95533 -7.20942 5.5
      vertex 10.594 -8.08542 5.5
      vertex 10.6463 -7.99476 5.5
    endloop
  endfacet
  facet normal 0 0 1
    outer loop
      vertex 8.95533 -7.20942 5.5
      vertex 10.7539 -7.59311 5.5
      vertex 10.7553 -7.54078 5.5
    endloop
  endfacet
  facet normal 0 0 1
    outer loop
      vertex 10.4624 1.24788 5.5
      vertex 4.74789 6.96242 5.5
      vertex 8.95531 0.209412 5.5
    endloop
  endfacet
  facet normal 0 0 1
    outer loop
      vertex 8.95531 0.209412 5.5
      vertex 10.4985 1.20991 5.5
      vertex 10.4624 1.24788 5.5
    endloop
  endfacet
  facet normal 0 0 1
    outer loop
      vertex 10.7498 0.645316 5.5
      vertex 10.7335 0.748708 5.5
      vertex 8.95531 0.209412 5.5
    endloop
  endfacet
  facet normal 0 0 1
    outer loop
      vertex 8.95531 0.209412 5.5
      vertex 10.7064 0.849816 5.5
      vertex 10.6689 0.947512 5.5
    endloop
  endfacet
  facet normal 0 0 1
    outer loop
      vertex 10.5643 1.12857 5.5
      vertex 10.4985 1.20991 5.5
      vertex 8.95531 0.209412 5.5
    endloop
  endfacet
  facet normal 0 0 1
    outer loop
      vertex 10.6213 1.04078 5.5
      vertex 10.5643 1.12857 5.5
      vertex 8.95531 0.209412 5.5
    endloop
  endfacet
  facet normal 0 0 1
    outer loop
      vertex 10.6213 1.04078 5.5
      vertex 8.95531 0.209412 5.5
      vertex 10.6689 0.947512 5.5
    endloop
  endfacet
  facet normal 0 0 1
    outer loop
      vertex 8.95531 0.209412 5.5
      vertex 10.7335 0.748708 5.5
      vertex 10.7064 0.849816 5.5
    endloop
  endfacet
  facet normal 0 0 1
    outer loop
      vertex 4.04078 7.25531 5.5
      vertex -3.70941 5.45531 5.5
      vertex 3.70942 5.45533 5.5
    endloop
  endfacet
  facet normal -0 0 1
    outer loop
      vertex 8.95531 0.209412 5.5
      vertex 10.7553 -7.54078 5.5
      vertex 10.7553 0.540791 5.5
    endloop
  endfacet
  facet normal 0 0 1
    outer loop
      vertex 4.19722 7.243 5.5
      vertex 4.09311 7.25393 5.5
      vertex 3.70942 5.45533 5.5
    endloop
  endfacet
  facet normal 0 0 1
    outer loop
      vertex 4.67011 7.03247 5.5
      vertex 4.58542 7.09397 5.5
      vertex 3.70942 5.45533 5.5
    endloop
  endfacet
  facet normal 0 0 1
    outer loop
      vertex 3.70942 5.45533 5.5
      vertex 4.49476 7.14632 5.5
      vertex 4.39914 7.18889 5.5
    endloop
  endfacet
  facet normal 0 0 1
    outer loop
      vertex 4.19722 7.243 5.5
      vertex 3.70942 5.45533 5.5
      vertex 4.2996 7.22124 5.5
    endloop
  endfacet
  facet normal 0 0 1
    outer loop
      vertex 4.2996 7.22124 5.5
      vertex 3.70942 5.45533 5.5
      vertex 4.39914 7.18889 5.5
    endloop
  endfacet
  facet normal 0 0 1
    outer loop
      vertex 3.70942 5.45533 5.5
      vertex 4.58542 7.09397 5.5
      vertex 4.49476 7.14632 5.5
    endloop
  endfacet
  facet normal 0 0 1
    outer loop
      vertex 3.70942 5.45533 5.5
      vertex 4.09311 7.25393 5.5
      vertex 4.04078 7.25531 5.5
    endloop
  endfacet
  facet normal 0 0 1
    outer loop
      vertex -8.95533 0.209418 5.5
      vertex -10.4624 1.24789 5.5
      vertex -10.5325 1.17011 5.5
    endloop
  endfacet
  facet normal 0 0 1
    outer loop
      vertex -4.74788 6.96242 5.5
      vertex -10.4624 1.24789 5.5
      vertex -3.70941 5.45531 5.5
    endloop
  endfacet
  facet normal 0 0 1
    outer loop
      vertex -3.70941 5.45531 5.5
      vertex -4.70991 6.99847 5.5
      vertex -4.74788 6.96242 5.5
    endloop
  endfacet
  facet normal 0 0 1
    outer loop
      vertex -4.14532 7.24984 5.5
      vertex -4.24871 7.23345 5.5
      vertex -3.70941 5.45531 5.5
    endloop
  endfacet
  facet normal 0 0 1
    outer loop
      vertex -3.70941 5.45531 5.5
      vertex -4.34982 7.20637 5.5
      vertex -4.44751 7.16886 5.5
    endloop
  endfacet
  facet normal 0 0 1
    outer loop
      vertex -4.62857 7.06433 5.5
      vertex -4.70991 6.99847 5.5
      vertex -3.70941 5.45531 5.5
    endloop
  endfacet
  facet normal 0 0 1
    outer loop
      vertex -4.54078 7.12134 5.5
      vertex -4.62857 7.06433 5.5
      vertex -3.70941 5.45531 5.5
    endloop
  endfacet
  facet normal -0 0 1
    outer loop
      vertex -4.54078 7.12134 5.5
      vertex -3.70941 5.45531 5.5
      vertex -4.44751 7.16886 5.5
    endloop
  endfacet
  facet normal 0 0 1
    outer loop
      vertex -3.70941 5.45531 5.5
      vertex -4.24871 7.23345 5.5
      vertex -4.34982 7.20637 5.5
    endloop
  endfacet
  facet normal 0 -0 1
    outer loop
      vertex -3.70941 5.45531 5.5
      vertex 4.04078 7.25531 5.5
      vertex -4.04079 7.25531 5.5
    endloop
  endfacet
  facet normal -0 0 1
    outer loop
      vertex -3.70942 -12.4553 5.5
      vertex -4.04078 -14.2553 5.5
      vertex 3.70941 -12.4553 5.5
    endloop
  endfacet
  facet normal 0 0 1
    outer loop
      vertex -10.743 0.697218 5.5
      vertex -10.7539 0.593114 5.5
      vertex -8.95533 0.209418 5.5
    endloop
  endfacet
  facet normal 0 0 1
    outer loop
      vertex -10.5325 1.17011 5.5
      vertex -10.594 1.08542 5.5
      vertex -8.95533 0.209418 5.5
    endloop
  endfacet
  facet normal 0 0 1
    outer loop
      vertex -8.95533 0.209418 5.5
      vertex -10.6463 0.994765 5.5
      vertex -10.6889 0.899141 5.5
    endloop
  endfacet
  facet normal -0 0 1
    outer loop
      vertex -10.743 0.697218 5.5
      vertex -8.95533 0.209418 5.5
      vertex -10.7212 0.799596 5.5
    endloop
  endfacet
  facet normal -0 0 1
    outer loop
      vertex -10.7212 0.799596 5.5
      vertex -8.95533 0.209418 5.5
      vertex -10.6889 0.899141 5.5
    endloop
  endfacet
  facet normal 0 0 1
    outer loop
      vertex -8.95533 0.209418 5.5
      vertex -10.594 1.08542 5.5
      vertex -10.6463 0.994765 5.5
    endloop
  endfacet
  facet normal 0 0 1
    outer loop
      vertex -8.95533 0.209418 5.5
      vertex -10.7539 0.593114 5.5
      vertex -10.7553 0.540781 5.5
    endloop
  endfacet
  facet normal -0 0 1
    outer loop
      vertex -10.4624 -8.24788 5.5
      vertex -4.74789 -13.9624 5.5
      vertex -8.95531 -7.20941 5.5
    endloop
  endfacet
  facet normal 0 0 1
    outer loop
      vertex 8.95533 -7.20942 5.5
      vertex 3.70941 -12.4553 5.5
      vertex 10.4624 -8.24789 5.5
    endloop
  endfacet
  facet normal 0 0 1
    outer loop
      vertex -8.95531 -7.20941 5.5
      vertex -10.4985 -8.20991 5.5
      vertex -10.4624 -8.24788 5.5
    endloop
  endfacet
  facet normal -0 0 1
    outer loop
      vertex -10.7498 -7.64532 5.5
      vertex -10.7335 -7.74871 5.5
      vertex -8.95531 -7.20941 5.5
    endloop
  endfacet
  facet normal 0 0 1
    outer loop
      vertex -8.95531 -7.20941 5.5
      vertex -10.7064 -7.84982 5.5
      vertex -10.6689 -7.94751 5.5
    endloop
  endfacet
  facet normal -0 0 1
    outer loop
      vertex -10.5643 -8.12857 5.5
      vertex -10.4985 -8.20991 5.5
      vertex -8.95531 -7.20941 5.5
    endloop
  endfacet
  facet normal -0 0 1
    outer loop
      vertex -10.6213 -8.04078 5.5
      vertex -10.5643 -8.12857 5.5
      vertex -8.95531 -7.20941 5.5
    endloop
  endfacet
  facet normal 0 -0 1
    outer loop
      vertex -10.6213 -8.04078 5.5
      vertex -8.95531 -7.20941 5.5
      vertex -10.6689 -7.94751 5.5
    endloop
  endfacet
  facet normal 0 0 1
    outer loop
      vertex -8.95531 -7.20941 5.5
      vertex -10.7335 -7.74871 5.5
      vertex -10.7064 -7.84982 5.5
    endloop
  endfacet
  facet normal 0 0 1
    outer loop
      vertex -8.95531 -7.20941 5.5
      vertex -8.95533 0.209418 5.5
      vertex -10.7553 0.540781 5.5
    endloop
  endfacet
  facet normal -0 0 1
    outer loop
      vertex -4.19722 -14.243 5.5
      vertex -4.09311 -14.2539 5.5
      vertex -3.70942 -12.4553 5.5
    endloop
  endfacet
  facet normal -0 0 1
    outer loop
      vertex -4.67011 -14.0325 5.5
      vertex -4.58542 -14.094 5.5
      vertex -3.70942 -12.4553 5.5
    endloop
  endfacet
  facet normal 0 0 1
    outer loop
      vertex -3.70942 -12.4553 5.5
      vertex -4.49476 -14.1463 5.5
      vertex -4.39914 -14.1889 5.5
    endloop
  endfacet
  facet normal 0 -0 1
    outer loop
      vertex -4.19722 -14.243 5.5
      vertex -3.70942 -12.4553 5.5
      vertex -4.2996 -14.2212 5.5
    endloop
  endfacet
  facet normal 0 -0 1
    outer loop
      vertex -4.2996 -14.2212 5.5
      vertex -3.70942 -12.4553 5.5
      vertex -4.39914 -14.1889 5.5
    endloop
  endfacet
  facet normal 0 0 1
    outer loop
      vertex -3.70942 -12.4553 5.5
      vertex -4.58542 -14.094 5.5
      vertex -4.49476 -14.1463 5.5
    endloop
  endfacet
  facet normal 0 0 1
    outer loop
      vertex -3.70942 -12.4553 5.5
      vertex -4.09311 -14.2539 5.5
      vertex -4.04078 -14.2553 5.5
    endloop
  endfacet
  facet normal 0 0 1
    outer loop
      vertex 3.70941 -12.4553 5.5
      vertex -4.04078 -14.2553 5.5
      vertex 4.04079 -14.2553 5.5
    endloop
  endfacet
  facet normal 0 0 1
    outer loop
      vertex 3.70941 -12.4553 5.5
      vertex 4.04079 -14.2553 5.5
      vertex 4.14532 -14.2498 5.5
    endloop
  endfacet
  facet normal 0 0 1
    outer loop
      vertex 3.70941 -12.4553 5.5
      vertex 4.24871 -14.2335 5.5
      vertex 4.34982 -14.2064 5.5
    endloop
  endfacet
  facet normal 0 -0 1
    outer loop
      vertex 4.14532 -14.2498 5.5
      vertex 4.24871 -14.2335 5.5
      vertex 3.70941 -12.4553 5.5
    endloop
  endfacet
  facet normal 0 0 1
    outer loop
      vertex 3.70941 -12.4553 5.5
      vertex 4.44751 -14.1689 5.5
      vertex 4.54078 -14.1213 5.5
    endloop
  endfacet
  facet normal 0 -0 1
    outer loop
      vertex 4.34982 -14.2064 5.5
      vertex 4.44751 -14.1689 5.5
      vertex 3.70941 -12.4553 5.5
    endloop
  endfacet
  facet normal 0 0 1
    outer loop
      vertex 10.4624 -8.24789 5.5
      vertex 3.70941 -12.4553 5.5
      vertex 4.74788 -13.9624 5.5
    endloop
  endfacet
  facet normal 0 -0 1
    outer loop
      vertex 10.4624 -8.24789 5.5
      vertex 10.5325 -8.1701 5.5
      vertex 8.95533 -7.20942 5.5
    endloop
  endfacet
  facet normal 0 -0 1
    outer loop
      vertex -4.74789 -13.9624 5.5
      vertex -3.70942 -12.4553 5.5
      vertex -8.95531 -7.20941 5.5
    endloop
  endfacet
  facet normal -0 0 1
    outer loop
      vertex -4.74789 -13.9624 5.5
      vertex -4.67011 -14.0325 5.5
      vertex -3.70942 -12.4553 5.5
    endloop
  endfacet
  facet normal 0 0 1
    outer loop
      vertex -10.7553 -7.54079 5.5
      vertex -8.95531 -7.20941 5.5
      vertex -10.7553 0.540781 5.5
    endloop
  endfacet
  facet normal -0 0 1
    outer loop
      vertex -10.7553 -7.54079 5.5
      vertex -10.7498 -7.64532 5.5
      vertex -8.95531 -7.20941 5.5
    endloop
  endfacet
  facet normal 0 0 1
    outer loop
      vertex -3.70941 5.45531 5.5
      vertex -10.4624 1.24789 5.5
      vertex -8.95533 0.209418 5.5
    endloop
  endfacet
  facet normal -0 0 1
    outer loop
      vertex -4.14532 7.24984 5.5
      vertex -3.70941 5.45531 5.5
      vertex -4.04079 7.25531 5.5
    endloop
  endfacet
  facet normal 0 0 1
    outer loop
      vertex 4.74789 6.96242 5.5
      vertex 3.70942 5.45533 5.5
      vertex 8.95531 0.209412 5.5
    endloop
  endfacet
  facet normal 0 0 1
    outer loop
      vertex 4.74789 6.96242 5.5
      vertex 4.67011 7.03247 5.5
      vertex 3.70942 5.45533 5.5
    endloop
  endfacet
  facet normal 0 0 1
    outer loop
      vertex 10.7498 0.645316 5.5
      vertex 8.95531 0.209412 5.5
      vertex 10.7553 0.540791 5.5
    endloop
  endfacet
  facet normal 0 0 1
    outer loop
      vertex 8.95531 0.209412 5.5
      vertex 8.95533 -7.20942 5.5
      vertex 10.7553 -7.54078 5.5
    endloop
  endfacet
  facet normal 0.544562 -0.838721 0
    outer loop
      vertex 4.62857 -14.0643 4
      vertex 4.54078 -14.1213 5.5
      vertex 4.54078 -14.1213 4
    endloop
  endfacet
  facet normal 0.544562 -0.838721 0
    outer loop
      vertex 4.62857 -14.0643 4
      vertex 4.62857 -14.0643 5.5
      vertex 4.54078 -14.1213 5.5
    endloop
  endfacet
  facet normal 0.628929 -0.777463 0
    outer loop
      vertex 4.70991 -13.9985 4
      vertex 4.62857 -14.0643 5.5
      vertex 4.62857 -14.0643 4
    endloop
  endfacet
  facet normal 0.628929 -0.777463 0
    outer loop
      vertex 4.70991 -13.9985 4
      vertex 4.70991 -13.9985 5.5
      vertex 4.62857 -14.0643 5.5
    endloop
  endfacet
  facet normal 0.689035 -0.724728 0
    outer loop
      vertex 4.74788 -13.9624 4
      vertex 4.70991 -13.9985 5.5
      vertex 4.70991 -13.9985 4
    endloop
  endfacet
  facet normal 0.689035 -0.724728 0
    outer loop
      vertex 4.74788 -13.9624 4
      vertex 4.74788 -13.9624 5.5
      vertex 4.70991 -13.9985 5.5
    endloop
  endfacet
  facet normal 0.707106 -0.707107 0
    outer loop
      vertex 10.4624 -8.24789 4
      vertex 4.74788 -13.9624 5.5
      vertex 4.74788 -13.9624 4
    endloop
  endfacet
  facet normal 0.707106 -0.707107 0
    outer loop
      vertex 10.4624 -8.24789 4
      vertex 10.4624 -8.24789 5.5
      vertex 4.74788 -13.9624 5.5
    endloop
  endfacet
  facet normal 0.742871 -0.669434 0
    outer loop
      vertex 10.5325 -8.1701 4
      vertex 10.4624 -8.24789 5.5
      vertex 10.4624 -8.24789 4
    endloop
  endfacet
  facet normal 0.742871 -0.669434 0
    outer loop
      vertex 10.5325 -8.1701 4
      vertex 10.5325 -8.1701 5.5
      vertex 10.4624 -8.24789 5.5
    endloop
  endfacet
  facet normal 0.809124 -0.587638 0
    outer loop
      vertex 10.594 -8.08542 4
      vertex 10.5325 -8.1701 5.5
      vertex 10.5325 -8.1701 4
    endloop
  endfacet
  facet normal 0.809124 -0.587638 0
    outer loop
      vertex 10.594 -8.08542 4
      vertex 10.594 -8.08542 5.5
      vertex 10.5325 -8.1701 5.5
    endloop
  endfacet
  facet normal 0.866201 -0.499695 0
    outer loop
      vertex 10.6463 -7.99476 4
      vertex 10.594 -8.08542 5.5
      vertex 10.594 -8.08542 4
    endloop
  endfacet
  facet normal 0.866201 -0.499695 0
    outer loop
      vertex 10.6463 -7.99476 4
      vertex 10.6463 -7.99476 5.5
      vertex 10.594 -8.08542 5.5
    endloop
  endfacet
  facet normal 0.913449 -0.406954 0
    outer loop
      vertex 10.6889 -7.89914 4
      vertex 10.6463 -7.99476 5.5
      vertex 10.6463 -7.99476 4
    endloop
  endfacet
  facet normal 0.913449 -0.406954 0
    outer loop
      vertex 10.6889 -7.89914 4
      vertex 10.6889 -7.89914 5.5
      vertex 10.6463 -7.99476 5.5
    endloop
  endfacet
  facet normal 0.951176 -0.30865 0
    outer loop
      vertex 10.7212 -7.7996 4
      vertex 10.6889 -7.89914 5.5
      vertex 10.6889 -7.89914 4
    endloop
  endfacet
  facet normal 0.951176 -0.30865 0
    outer loop
      vertex 10.7212 -7.7996 4
      vertex 10.7212 -7.7996 5.5
      vertex 10.6889 -7.89914 5.5
    endloop
  endfacet
  facet normal 0.978073 -0.208263 0
    outer loop
      vertex 10.743 -7.69722 4
      vertex 10.7212 -7.7996 5.5
      vertex 10.7212 -7.7996 4
    endloop
  endfacet
  facet normal 0.978073 -0.208263 0
    outer loop
      vertex 10.743 -7.69722 4
      vertex 10.743 -7.69722 5.5
      vertex 10.7212 -7.7996 5.5
    endloop
  endfacet
  facet normal 0.994564 -0.104128 0
    outer loop
      vertex 10.7539 -7.59311 4
      vertex 10.743 -7.69722 5.5
      vertex 10.743 -7.69722 4
    endloop
  endfacet
  facet normal 0.994564 -0.104128 0
    outer loop
      vertex 10.7539 -7.59311 4
      vertex 10.7539 -7.59311 5.5
      vertex 10.743 -7.69722 5.5
    endloop
  endfacet
  facet normal 0.999642 -0.0267437 0
    outer loop
      vertex 10.7553 -7.54078 4
      vertex 10.7539 -7.59311 5.5
      vertex 10.7539 -7.59311 4
    endloop
  endfacet
  facet normal 0.999642 -0.0267437 0
    outer loop
      vertex 10.7553 -7.54078 4
      vertex 10.7553 -7.54078 5.5
      vertex 10.7539 -7.59311 5.5
    endloop
  endfacet
  facet normal 1 0 0
    outer loop
      vertex 10.7553 0.540791 4
      vertex 10.7553 -7.54078 5.5
      vertex 10.7553 -7.54078 4
    endloop
  endfacet
  facet normal 1 0 -0
    outer loop
      vertex 10.7553 0.540791 4
      vertex 10.7553 0.540791 5.5
      vertex 10.7553 -7.54078 5.5
    endloop
  endfacet
  facet normal 0.998618 0.0525463 0
    outer loop
      vertex 10.7498 0.645316 4
      vertex 10.7553 0.540791 5.5
      vertex 10.7553 0.540791 4
    endloop
  endfacet
  facet normal 0.998618 0.0525463 -0
    outer loop
      vertex 10.7498 0.645316 4
      vertex 10.7498 0.645316 5.5
      vertex 10.7553 0.540791 5.5
    endloop
  endfacet
  facet normal 0.9878 0.155729 0
    outer loop
      vertex 10.7335 0.748708 4
      vertex 10.7498 0.645316 5.5
      vertex 10.7498 0.645316 4
    endloop
  endfacet
  facet normal 0.9878 0.155729 -0
    outer loop
      vertex 10.7335 0.748708 4
      vertex 10.7335 0.748708 5.5
      vertex 10.7498 0.645316 5.5
    endloop
  endfacet
  facet normal 0.965906 0.258892 0
    outer loop
      vertex 10.7064 0.849816 4
      vertex 10.7335 0.748708 5.5
      vertex 10.7335 0.748708 4
    endloop
  endfacet
  facet normal 0.965906 0.258892 -0
    outer loop
      vertex 10.7064 0.849816 4
      vertex 10.7064 0.849816 5.5
      vertex 10.7335 0.748708 5.5
    endloop
  endfacet
  facet normal 0.933587 0.358351 0
    outer loop
      vertex 10.6689 0.947512 4
      vertex 10.7064 0.849816 5.5
      vertex 10.7064 0.849816 4
    endloop
  endfacet
  facet normal 0.933587 0.358351 -0
    outer loop
      vertex 10.6689 0.947512 4
      vertex 10.6689 0.947512 5.5
      vertex 10.7064 0.849816 5.5
    endloop
  endfacet
  facet normal 0.890707 0.454579 0
    outer loop
      vertex 10.6213 1.04078 4
      vertex 10.6689 0.947512 5.5
      vertex 10.6689 0.947512 4
    endloop
  endfacet
  facet normal 0.890707 0.454579 -0
    outer loop
      vertex 10.6213 1.04078 4
      vertex 10.6213 1.04078 5.5
      vertex 10.6689 0.947512 5.5
    endloop
  endfacet
  facet normal 0.838721 0.544562 0
    outer loop
      vertex 10.5643 1.12857 4
      vertex 10.6213 1.04078 5.5
      vertex 10.6213 1.04078 4
    endloop
  endfacet
  facet normal 0.838721 0.544562 -0
    outer loop
      vertex 10.5643 1.12857 4
      vertex 10.5643 1.12857 5.5
      vertex 10.6213 1.04078 5.5
    endloop
  endfacet
  facet normal 0.777463 0.628929 0
    outer loop
      vertex 10.4985 1.20991 4
      vertex 10.5643 1.12857 5.5
      vertex 10.5643 1.12857 4
    endloop
  endfacet
  facet normal 0.777463 0.628929 -0
    outer loop
      vertex 10.4985 1.20991 4
      vertex 10.4985 1.20991 5.5
      vertex 10.5643 1.12857 5.5
    endloop
  endfacet
  facet normal 0.724728 0.689035 0
    outer loop
      vertex 10.4624 1.24788 4
      vertex 10.4985 1.20991 5.5
      vertex 10.4985 1.20991 4
    endloop
  endfacet
  facet normal 0.724728 0.689035 -0
    outer loop
      vertex 10.4624 1.24788 4
      vertex 10.4624 1.24788 5.5
      vertex 10.4985 1.20991 5.5
    endloop
  endfacet
  facet normal 0.707109 0.707105 0
    outer loop
      vertex 4.74789 6.96242 4
      vertex 10.4624 1.24788 5.5
      vertex 10.4624 1.24788 4
    endloop
  endfacet
  facet normal 0.707109 0.707105 -0
    outer loop
      vertex 4.74789 6.96242 4
      vertex 4.74789 6.96242 5.5
      vertex 10.4624 1.24788 5.5
    endloop
  endfacet
  facet normal 0.669218 0.743066 0
    outer loop
      vertex 4.67011 7.03247 4
      vertex 4.74789 6.96242 5.5
      vertex 4.74789 6.96242 4
    endloop
  endfacet
  facet normal 0.669218 0.743066 -0
    outer loop
      vertex 4.67011 7.03247 4
      vertex 4.67011 7.03247 5.5
      vertex 4.74789 6.96242 5.5
    endloop
  endfacet
  facet normal 0.587592 0.809157 0
    outer loop
      vertex 4.58542 7.09397 4
      vertex 4.67011 7.03247 5.5
      vertex 4.67011 7.03247 4
    endloop
  endfacet
  facet normal 0.587592 0.809157 -0
    outer loop
      vertex 4.58542 7.09397 4
      vertex 4.58542 7.09397 5.5
      vertex 4.67011 7.03247 5.5
    endloop
  endfacet
  facet normal 0.500053 0.865995 0
    outer loop
      vertex 4.49476 7.14632 4
      vertex 4.58542 7.09397 5.5
      vertex 4.58542 7.09397 4
    endloop
  endfacet
  facet normal 0.500053 0.865995 -0
    outer loop
      vertex 4.49476 7.14632 4
      vertex 4.49476 7.14632 5.5
      vertex 4.58542 7.09397 5.5
    endloop
  endfacet
  facet normal 0.406715 0.913555 0
    outer loop
      vertex 4.39914 7.18889 4
      vertex 4.49476 7.14632 5.5
      vertex 4.49476 7.14632 4
    endloop
  endfacet
  facet normal 0.406715 0.913555 -0
    outer loop
      vertex 4.39914 7.18889 4
      vertex 4.39914 7.18889 5.5
      vertex 4.49476 7.14632 5.5
    endloop
  endfacet
  facet normal 0.309082 0.951035 0
    outer loop
      vertex 4.2996 7.22124 4
      vertex 4.39914 7.18889 5.5
      vertex 4.39914 7.18889 4
    endloop
  endfacet
  facet normal 0.309082 0.951035 -0
    outer loop
      vertex 4.2996 7.22124 4
      vertex 4.2996 7.22124 5.5
      vertex 4.39914 7.18889 5.5
    endloop
  endfacet
  facet normal 0.207898 0.978151 0
    outer loop
      vertex 4.19722 7.243 4
      vertex 4.2996 7.22124 5.5
      vertex 4.2996 7.22124 4
    endloop
  endfacet
  facet normal 0.207898 0.978151 -0
    outer loop
      vertex 4.19722 7.243 4
      vertex 4.19722 7.243 5.5
      vertex 4.2996 7.22124 5.5
    endloop
  endfacet
  facet normal 0.104411 0.994534 0
    outer loop
      vertex 4.09311 7.25393 4
      vertex 4.19722 7.243 5.5
      vertex 4.19722 7.243 4
    endloop
  endfacet
  facet normal 0.104411 0.994534 -0
    outer loop
      vertex 4.09311 7.25393 4
      vertex 4.09311 7.25393 5.5
      vertex 4.19722 7.243 5.5
    endloop
  endfacet
  facet normal 0.0263619 0.999652 0
    outer loop
      vertex 4.04078 7.25531 4
      vertex 4.09311 7.25393 5.5
      vertex 4.09311 7.25393 4
    endloop
  endfacet
  facet normal 0.0263619 0.999652 -0
    outer loop
      vertex 4.04078 7.25531 4
      vertex 4.04078 7.25531 5.5
      vertex 4.09311 7.25393 5.5
    endloop
  endfacet
  facet normal 0 1 0
    outer loop
      vertex -4.04079 7.25531 4
      vertex 4.04078 7.25531 5.5
      vertex 4.04078 7.25531 4
    endloop
  endfacet
  facet normal 0 1 0
    outer loop
      vertex -4.04079 7.25531 4
      vertex -4.04079 7.25531 5.5
      vertex 4.04078 7.25531 5.5
    endloop
  endfacet
  facet normal -0.052258 0.998634 0
    outer loop
      vertex -4.14532 7.24984 4
      vertex -4.04079 7.25531 5.5
      vertex -4.04079 7.25531 4
    endloop
  endfacet
  facet normal -0.052258 0.998634 0
    outer loop
      vertex -4.14532 7.24984 4
      vertex -4.14532 7.24984 5.5
      vertex -4.04079 7.25531 5.5
    endloop
  endfacet
  facet normal -0.156571 0.987667 0
    outer loop
      vertex -4.24871 7.23345 4
      vertex -4.14532 7.24984 5.5
      vertex -4.14532 7.24984 4
    endloop
  endfacet
  facet normal -0.156571 0.987667 0
    outer loop
      vertex -4.24871 7.23345 4
      vertex -4.24871 7.23345 5.5
      vertex -4.14532 7.24984 5.5
    endloop
  endfacet
  facet normal -0.258709 0.965955 0
    outer loop
      vertex -4.34982 7.20637 4
      vertex -4.24871 7.23345 5.5
      vertex -4.24871 7.23345 4
    endloop
  endfacet
  facet normal -0.258709 0.965955 0
    outer loop
      vertex -4.34982 7.20637 4
      vertex -4.34982 7.20637 5.5
      vertex -4.24871 7.23345 5.5
    endloop
  endfacet
  facet normal -0.358454 0.933547 0
    outer loop
      vertex -4.44751 7.16886 4
      vertex -4.34982 7.20637 5.5
      vertex -4.34982 7.20637 4
    endloop
  endfacet
  facet normal -0.358454 0.933547 0
    outer loop
      vertex -4.44751 7.16886 4
      vertex -4.44751 7.16886 5.5
      vertex -4.34982 7.20637 5.5
    endloop
  endfacet
  facet normal -0.453964 0.89102 0
    outer loop
      vertex -4.54078 7.12134 4
      vertex -4.44751 7.16886 5.5
      vertex -4.44751 7.16886 4
    endloop
  endfacet
  facet normal -0.453964 0.89102 0
    outer loop
      vertex -4.54078 7.12134 4
      vertex -4.54078 7.12134 5.5
      vertex -4.44751 7.16886 5.5
    endloop
  endfacet
  facet normal -0.544629 0.838677 0
    outer loop
      vertex -4.62857 7.06433 4
      vertex -4.54078 7.12134 5.5
      vertex -4.54078 7.12134 4
    endloop
  endfacet
  facet normal -0.544629 0.838677 0
    outer loop
      vertex -4.62857 7.06433 4
      vertex -4.62857 7.06433 5.5
      vertex -4.54078 7.12134 5.5
    endloop
  endfacet
  facet normal -0.629275 0.777183 0
    outer loop
      vertex -4.70991 6.99847 4
      vertex -4.62857 7.06433 5.5
      vertex -4.62857 7.06433 4
    endloop
  endfacet
  facet normal -0.629275 0.777183 0
    outer loop
      vertex -4.70991 6.99847 4
      vertex -4.70991 6.99847 5.5
      vertex -4.62857 7.06433 5.5
    endloop
  endfacet
  facet normal -0.688534 0.725204 0
    outer loop
      vertex -4.74788 6.96242 4
      vertex -4.70991 6.99847 5.5
      vertex -4.70991 6.99847 4
    endloop
  endfacet
  facet normal -0.688534 0.725204 0
    outer loop
      vertex -4.74788 6.96242 4
      vertex -4.74788 6.96242 5.5
      vertex -4.70991 6.99847 5.5
    endloop
  endfacet
  facet normal -0.707107 0.707106 0
    outer loop
      vertex -10.4624 1.24789 4
      vertex -4.74788 6.96242 5.5
      vertex -4.74788 6.96242 4
    endloop
  endfacet
  facet normal -0.707107 0.707106 0
    outer loop
      vertex -10.4624 1.24789 4
      vertex -10.4624 1.24789 5.5
      vertex -4.74788 6.96242 5.5
    endloop
  endfacet
  facet normal -0.742829 0.669482 0
    outer loop
      vertex -10.5325 1.17011 4
      vertex -10.4624 1.24789 5.5
      vertex -10.4624 1.24789 4
    endloop
  endfacet
  facet normal -0.742829 0.669482 0
    outer loop
      vertex -10.5325 1.17011 4
      vertex -10.5325 1.17011 5.5
      vertex -10.4624 1.24789 5.5
    endloop
  endfacet
  facet normal -0.809157 0.587592 0
    outer loop
      vertex -10.594 1.08542 4
      vertex -10.5325 1.17011 5.5
      vertex -10.5325 1.17011 4
    endloop
  endfacet
  facet normal -0.809157 0.587592 0
    outer loop
      vertex -10.594 1.08542 4
      vertex -10.594 1.08542 5.5
      vertex -10.5325 1.17011 5.5
    endloop
  endfacet
  facet normal -0.86619 0.499716 0
    outer loop
      vertex -10.6463 0.994765 4
      vertex -10.594 1.08542 5.5
      vertex -10.594 1.08542 4
    endloop
  endfacet
  facet normal -0.86619 0.499716 0
    outer loop
      vertex -10.6463 0.994765 4
      vertex -10.6463 0.994765 5.5
      vertex -10.594 1.08542 5.5
    endloop
  endfacet
  facet normal -0.913455 0.40694 0
    outer loop
      vertex -10.6889 0.899141 4
      vertex -10.6463 0.994765 5.5
      vertex -10.6463 0.994765 4
    endloop
  endfacet
  facet normal -0.913455 0.40694 0
    outer loop
      vertex -10.6889 0.899141 4
      vertex -10.6889 0.899141 5.5
      vertex -10.6463 0.994765 5.5
    endloop
  endfacet
  facet normal -0.95118 0.308636 0
    outer loop
      vertex -10.7212 0.799596 4
      vertex -10.6889 0.899141 5.5
      vertex -10.6889 0.899141 4
    endloop
  endfacet
  facet normal -0.95118 0.308636 0
    outer loop
      vertex -10.7212 0.799596 4
      vertex -10.7212 0.799596 5.5
      vertex -10.6889 0.899141 5.5
    endloop
  endfacet
  facet normal -0.978072 0.208267 0
    outer loop
      vertex -10.743 0.697218 4
      vertex -10.7212 0.799596 5.5
      vertex -10.7212 0.799596 4
    endloop
  endfacet
  facet normal -0.978072 0.208267 0
    outer loop
      vertex -10.743 0.697218 4
      vertex -10.743 0.697218 5.5
      vertex -10.7212 0.799596 5.5
    endloop
  endfacet
  facet normal -0.994563 0.104134 0
    outer loop
      vertex -10.7539 0.593114 4
      vertex -10.743 0.697218 5.5
      vertex -10.743 0.697218 4
    endloop
  endfacet
  facet normal -0.994563 0.104134 0
    outer loop
      vertex -10.7539 0.593114 4
      vertex -10.7539 0.593114 5.5
      vertex -10.743 0.697218 5.5
    endloop
  endfacet
  facet normal -0.999642 0.0267422 0
    outer loop
      vertex -10.7553 0.540781 4
      vertex -10.7539 0.593114 5.5
      vertex -10.7539 0.593114 4
    endloop
  endfacet
  facet normal -0.999642 0.0267422 0
    outer loop
      vertex -10.7553 0.540781 4
      vertex -10.7553 0.540781 5.5
      vertex -10.7539 0.593114 5.5
    endloop
  endfacet
  facet normal -1 0 0
    outer loop
      vertex -10.7553 -7.54079 4
      vertex -10.7553 0.540781 5.5
      vertex -10.7553 0.540781 4
    endloop
  endfacet
  facet normal -1 0 0
    outer loop
      vertex -10.7553 -7.54079 4
      vertex -10.7553 -7.54079 5.5
      vertex -10.7553 0.540781 5.5
    endloop
  endfacet
  facet normal -0.998619 -0.0525438 0
    outer loop
      vertex -10.7498 -7.64532 4
      vertex -10.7553 -7.54079 5.5
      vertex -10.7553 -7.54079 4
    endloop
  endfacet
  facet normal -0.998619 -0.0525438 0
    outer loop
      vertex -10.7498 -7.64532 4
      vertex -10.7498 -7.64532 5.5
      vertex -10.7553 -7.54079 5.5
    endloop
  endfacet
  facet normal -0.987799 -0.155732 0
    outer loop
      vertex -10.7335 -7.74871 4
      vertex -10.7498 -7.64532 5.5
      vertex -10.7498 -7.64532 4
    endloop
  endfacet
  facet normal -0.987799 -0.155732 0
    outer loop
      vertex -10.7335 -7.74871 4
      vertex -10.7335 -7.74871 5.5
      vertex -10.7498 -7.64532 5.5
    endloop
  endfacet
  facet normal -0.965908 -0.258887 0
    outer loop
      vertex -10.7064 -7.84982 4
      vertex -10.7335 -7.74871 5.5
      vertex -10.7335 -7.74871 4
    endloop
  endfacet
  facet normal -0.965908 -0.258887 0
    outer loop
      vertex -10.7064 -7.84982 4
      vertex -10.7064 -7.84982 5.5
      vertex -10.7335 -7.74871 5.5
    endloop
  endfacet
  facet normal -0.933579 -0.358371 0
    outer loop
      vertex -10.6689 -7.94751 4
      vertex -10.7064 -7.84982 5.5
      vertex -10.7064 -7.84982 4
    endloop
  endfacet
  facet normal -0.933579 -0.358371 0
    outer loop
      vertex -10.6689 -7.94751 4
      vertex -10.6689 -7.94751 5.5
      vertex -10.7064 -7.84982 5.5
    endloop
  endfacet
  facet normal -0.890711 -0.454571 0
    outer loop
      vertex -10.6213 -8.04078 4
      vertex -10.6689 -7.94751 5.5
      vertex -10.6689 -7.94751 4
    endloop
  endfacet
  facet normal -0.890711 -0.454571 0
    outer loop
      vertex -10.6213 -8.04078 4
      vertex -10.6213 -8.04078 5.5
      vertex -10.6689 -7.94751 5.5
    endloop
  endfacet
  facet normal -0.838721 -0.544562 0
    outer loop
      vertex -10.5643 -8.12857 4
      vertex -10.6213 -8.04078 5.5
      vertex -10.6213 -8.04078 4
    endloop
  endfacet
  facet normal -0.838721 -0.544562 0
    outer loop
      vertex -10.5643 -8.12857 4
      vertex -10.5643 -8.12857 5.5
      vertex -10.6213 -8.04078 5.5
    endloop
  endfacet
  facet normal -0.777463 -0.628929 0
    outer loop
      vertex -10.4985 -8.20991 4
      vertex -10.5643 -8.12857 5.5
      vertex -10.5643 -8.12857 4
    endloop
  endfacet
  facet normal -0.777463 -0.628929 0
    outer loop
      vertex -10.4985 -8.20991 4
      vertex -10.4985 -8.20991 5.5
      vertex -10.5643 -8.12857 5.5
    endloop
  endfacet
  facet normal -0.724728 -0.689035 0
    outer loop
      vertex -10.4624 -8.24788 4
      vertex -10.4985 -8.20991 5.5
      vertex -10.4985 -8.20991 4
    endloop
  endfacet
  facet normal -0.724728 -0.689035 0
    outer loop
      vertex -10.4624 -8.24788 4
      vertex -10.4624 -8.24788 5.5
      vertex -10.4985 -8.20991 5.5
    endloop
  endfacet
  facet normal -0.707107 -0.707106 0
    outer loop
      vertex -4.74789 -13.9624 4
      vertex -10.4624 -8.24788 5.5
      vertex -10.4624 -8.24788 4
    endloop
  endfacet
  facet normal -0.707107 -0.707106 0
    outer loop
      vertex -4.74789 -13.9624 4
      vertex -4.74789 -13.9624 5.5
      vertex -10.4624 -8.24788 5.5
    endloop
  endfacet
  facet normal -0.669482 -0.742829 0
    outer loop
      vertex -4.67011 -14.0325 4
      vertex -4.74789 -13.9624 5.5
      vertex -4.74789 -13.9624 4
    endloop
  endfacet
  facet normal -0.669482 -0.742829 0
    outer loop
      vertex -4.67011 -14.0325 4
      vertex -4.67011 -14.0325 5.5
      vertex -4.74789 -13.9624 5.5
    endloop
  endfacet
  facet normal -0.587592 -0.809157 0
    outer loop
      vertex -4.58542 -14.094 4
      vertex -4.67011 -14.0325 5.5
      vertex -4.67011 -14.0325 4
    endloop
  endfacet
  facet normal -0.587592 -0.809157 0
    outer loop
      vertex -4.58542 -14.094 4
      vertex -4.58542 -14.094 5.5
      vertex -4.67011 -14.0325 5.5
    endloop
  endfacet
  facet normal -0.499695 -0.866201 0
    outer loop
      vertex -4.49476 -14.1463 4
      vertex -4.58542 -14.094 5.5
      vertex -4.58542 -14.094 4
    endloop
  endfacet
  facet normal -0.499695 -0.866201 0
    outer loop
      vertex -4.49476 -14.1463 4
      vertex -4.49476 -14.1463 5.5
      vertex -4.58542 -14.094 5.5
    endloop
  endfacet
  facet normal -0.406954 -0.913449 0
    outer loop
      vertex -4.39914 -14.1889 4
      vertex -4.49476 -14.1463 5.5
      vertex -4.49476 -14.1463 4
    endloop
  endfacet
  facet normal -0.406954 -0.913449 0
    outer loop
      vertex -4.39914 -14.1889 4
      vertex -4.39914 -14.1889 5.5
      vertex -4.49476 -14.1463 5.5
    endloop
  endfacet
  facet normal -0.30865 -0.951176 0
    outer loop
      vertex -4.2996 -14.2212 4
      vertex -4.39914 -14.1889 5.5
      vertex -4.39914 -14.1889 4
    endloop
  endfacet
  facet normal -0.30865 -0.951176 0
    outer loop
      vertex -4.2996 -14.2212 4
      vertex -4.2996 -14.2212 5.5
      vertex -4.39914 -14.1889 5.5
    endloop
  endfacet
  facet normal -0.208263 -0.978073 0
    outer loop
      vertex -4.19722 -14.243 4
      vertex -4.2996 -14.2212 5.5
      vertex -4.2996 -14.2212 4
    endloop
  endfacet
  facet normal -0.208263 -0.978073 0
    outer loop
      vertex -4.19722 -14.243 4
      vertex -4.19722 -14.243 5.5
      vertex -4.2996 -14.2212 5.5
    endloop
  endfacet
  facet normal -0.104128 -0.994564 0
    outer loop
      vertex -4.09311 -14.2539 4
      vertex -4.19722 -14.243 5.5
      vertex -4.19722 -14.243 4
    endloop
  endfacet
  facet normal -0.104128 -0.994564 0
    outer loop
      vertex -4.09311 -14.2539 4
      vertex -4.09311 -14.2539 5.5
      vertex -4.19722 -14.243 5.5
    endloop
  endfacet
  facet normal -0.0267437 -0.999642 0
    outer loop
      vertex -4.04078 -14.2553 4
      vertex -4.09311 -14.2539 5.5
      vertex -4.09311 -14.2539 4
    endloop
  endfacet
  facet normal -0.0267437 -0.999642 0
    outer loop
      vertex -4.04078 -14.2553 4
      vertex -4.04078 -14.2553 5.5
      vertex -4.09311 -14.2539 5.5
    endloop
  endfacet
  facet normal 0 -1 0
    outer loop
      vertex 4.04079 -14.2553 4
      vertex -4.04078 -14.2553 5.5
      vertex -4.04078 -14.2553 4
    endloop
  endfacet
  facet normal 0 -1 0
    outer loop
      vertex 4.04079 -14.2553 4
      vertex 4.04079 -14.2553 5.5
      vertex -4.04078 -14.2553 5.5
    endloop
  endfacet
  facet normal 0.0525438 -0.998619 0
    outer loop
      vertex 4.14532 -14.2498 4
      vertex 4.04079 -14.2553 5.5
      vertex 4.04079 -14.2553 4
    endloop
  endfacet
  facet normal 0.0525438 -0.998619 0
    outer loop
      vertex 4.14532 -14.2498 4
      vertex 4.14532 -14.2498 5.5
      vertex 4.04079 -14.2553 5.5
    endloop
  endfacet
  facet normal 0.155732 -0.987799 0
    outer loop
      vertex 4.24871 -14.2335 4
      vertex 4.14532 -14.2498 5.5
      vertex 4.14532 -14.2498 4
    endloop
  endfacet
  facet normal 0.155732 -0.987799 0
    outer loop
      vertex 4.24871 -14.2335 4
      vertex 4.24871 -14.2335 5.5
      vertex 4.14532 -14.2498 5.5
    endloop
  endfacet
  facet normal 0.258887 -0.965908 0
    outer loop
      vertex 4.34982 -14.2064 4
      vertex 4.24871 -14.2335 5.5
      vertex 4.24871 -14.2335 4
    endloop
  endfacet
  facet normal 0.258887 -0.965908 0
    outer loop
      vertex 4.34982 -14.2064 4
      vertex 4.34982 -14.2064 5.5
      vertex 4.24871 -14.2335 5.5
    endloop
  endfacet
  facet normal 0.358371 -0.933579 0
    outer loop
      vertex 4.44751 -14.1689 4
      vertex 4.34982 -14.2064 5.5
      vertex 4.34982 -14.2064 4
    endloop
  endfacet
  facet normal 0.358371 -0.933579 0
    outer loop
      vertex 4.44751 -14.1689 4
      vertex 4.44751 -14.1689 5.5
      vertex 4.34982 -14.2064 5.5
    endloop
  endfacet
  facet normal 0.454571 -0.890711 0
    outer loop
      vertex 4.54078 -14.1213 4
      vertex 4.44751 -14.1689 5.5
      vertex 4.44751 -14.1689 4
    endloop
  endfacet
  facet normal 0.454571 -0.890711 0
    outer loop
      vertex 4.54078 -14.1213 4
      vertex 4.54078 -14.1213 5.5
      vertex 4.44751 -14.1689 5.5
    endloop
  endfacet
  facet normal 0.707107 0.707107 -0
    outer loop
      vertex -8.95531 -7.20941 4
      vertex -8.95531 -7.20941 5.5
      vertex -3.70942 -12.4553 4
    endloop
  endfacet
  facet normal 0.707107 0.707107 0
    outer loop
      vertex -3.70942 -12.4553 5.5
      vertex -3.70942 -12.4553 4
      vertex -8.95531 -7.20941 5.5
    endloop
  endfacet
  facet normal 1 2.69584e-06 -0
    outer loop
      vertex -8.95533 0.209418 4
      vertex -8.95533 0.209418 5.5
      vertex -8.95531 -7.20941 4
    endloop
  endfacet
  facet normal 1 2.69584e-06 0
    outer loop
      vertex -8.95531 -7.20941 5.5
      vertex -8.95531 -7.20941 4
      vertex -8.95533 0.209418 5.5
    endloop
  endfacet
  facet normal 0.707105 -0.707109 0
    outer loop
      vertex -3.70941 5.45531 4
      vertex -3.70941 5.45531 5.5
      vertex -8.95533 0.209418 4
    endloop
  endfacet
  facet normal 0.707105 -0.707109 0
    outer loop
      vertex -8.95533 0.209418 5.5
      vertex -8.95533 0.209418 4
      vertex -3.70941 5.45531 5.5
    endloop
  endfacet
  facet normal 2.69584e-06 -1 0
    outer loop
      vertex 3.70942 5.45533 4
      vertex 3.70942 5.45533 5.5
      vertex -3.70941 5.45531 4
    endloop
  endfacet
  facet normal 2.69584e-06 -1 0
    outer loop
      vertex -3.70941 5.45531 5.5
      vertex -3.70941 5.45531 4
      vertex 3.70942 5.45533 5.5
    endloop
  endfacet
  facet normal -0.707109 -0.707105 0
    outer loop
      vertex 8.95531 0.209412 4
      vertex 8.95531 0.209412 5.5
      vertex 3.70942 5.45533 4
    endloop
  endfacet
  facet normal -0.707109 -0.707105 -0
    outer loop
      vertex 3.70942 5.45533 5.5
      vertex 3.70942 5.45533 4
      vertex 8.95531 0.209412 5.5
    endloop
  endfacet
  facet normal -1 -2.69584e-06 0
    outer loop
      vertex 8.95533 -7.20942 4
      vertex 8.95533 -7.20942 5.5
      vertex 8.95531 0.209412 4
    endloop
  endfacet
  facet normal -1 -2.69584e-06 -0
    outer loop
      vertex 8.95531 0.209412 5.5
      vertex 8.95531 0.209412 4
      vertex 8.95533 -7.20942 5.5
    endloop
  endfacet
  facet normal -0.707104 0.707109 0
    outer loop
      vertex 3.70941 -12.4553 4
      vertex 3.70941 -12.4553 5.5
      vertex 8.95533 -7.20942 4
    endloop
  endfacet
  facet normal -0.707104 0.707109 0
    outer loop
      vertex 8.95533 -7.20942 5.5
      vertex 8.95533 -7.20942 4
      vertex 3.70941 -12.4553 5.5
    endloop
  endfacet
  facet normal 0 1 0
    outer loop
      vertex -3.70942 -12.4553 4
      vertex -3.70942 -12.4553 5.5
      vertex 3.70941 -12.4553 4
    endloop
  endfacet
  facet normal 0 1 0
    outer loop
      vertex 3.70941 -12.4553 5.5
      vertex 3.70941 -12.4553 4
      vertex -3.70942 -12.4553 5.5
    endloop
  endfacet
endsolid OpenSCAD_Model
